%YAML 1.1
%TAG !u! tag:unity3d.com,2011:
--- !u!74 &7400000
AnimationClip:
  m_ObjectHideFlags: 0
  m_CorrespondingSourceObject: {fileID: 0}
  m_PrefabInstance: {fileID: 0}
  m_PrefabAsset: {fileID: 0}
  m_Name: Andar
  serializedVersion: 6
  m_Legacy: 0
  m_Compressed: 0
  m_UseHighQualityCurve: 1
  m_RotationCurves: []
  m_CompressedRotationCurves: []
  m_EulerCurves: []
  m_PositionCurves: []
  m_ScaleCurves: []
  m_FloatCurves: []
  m_PPtrCurves:
  - curve:
    - time: 0
      value: {fileID: -634939176177036431, guid: a5aee097339a45045bbfac0ba7d8e3ba, type: 3}
    - time: 0.083333336
      value: {fileID: 1291146559195552984, guid: a5aee097339a45045bbfac0ba7d8e3ba, type: 3}
    - time: 0.18333334
      value: {fileID: -7249430012921954511, guid: a5aee097339a45045bbfac0ba7d8e3ba, type: 3}
    - time: 0.26666668
      value: {fileID: -7458982963906360784, guid: a5aee097339a45045bbfac0ba7d8e3ba, type: 3}
    - time: 0.35
      value: {fileID: 2828206487452950891, guid: a5aee097339a45045bbfac0ba7d8e3ba, type: 3}
    - time: 0.43333334
      value: {fileID: 7343336956831097597, guid: a5aee097339a45045bbfac0ba7d8e3ba, type: 3}
    - time: 0.53333336
      value: {fileID: -6623594924128421203, guid: a5aee097339a45045bbfac0ba7d8e3ba, type: 3}
    - time: 0.6166667
      value: {fileID: 7791262819983882499, guid: a5aee097339a45045bbfac0ba7d8e3ba, type: 3}
    - time: 0.7
      value: {fileID: 241785388218342967, guid: a5aee097339a45045bbfac0ba7d8e3ba, type: 3}
    - time: 0.78333336
      value: {fileID: 5417883462495597884, guid: a5aee097339a45045bbfac0ba7d8e3ba, type: 3}
    - time: 0.8833333
      value: {fileID: 472873386604557783, guid: a5aee097339a45045bbfac0ba7d8e3ba, type: 3}
    - time: 0.96666664
      value: {fileID: 5349512826217981496, guid: a5aee097339a45045bbfac0ba7d8e3ba, type: 3}
    attribute: m_Sprite
    path: 
    classID: 212
    script: {fileID: 0}
  m_SampleRate: 60
  m_WrapMode: 0
  m_Bounds:
    m_Center: {x: 0, y: 0, z: 0}
    m_Extent: {x: 0, y: 0, z: 0}
  m_ClipBindingConstant:
    genericBindings:
    - serializedVersion: 2
      path: 0
      attribute: 0
      script: {fileID: 0}
      typeID: 212
      customType: 23
      isPPtrCurve: 1
    pptrCurveMapping:
    - {fileID: -634939176177036431, guid: a5aee097339a45045bbfac0ba7d8e3ba, type: 3}
    - {fileID: 1291146559195552984, guid: a5aee097339a45045bbfac0ba7d8e3ba, type: 3}
    - {fileID: -7249430012921954511, guid: a5aee097339a45045bbfac0ba7d8e3ba, type: 3}
    - {fileID: -7458982963906360784, guid: a5aee097339a45045bbfac0ba7d8e3ba, type: 3}
    - {fileID: 2828206487452950891, guid: a5aee097339a45045bbfac0ba7d8e3ba, type: 3}
    - {fileID: 7343336956831097597, guid: a5aee097339a45045bbfac0ba7d8e3ba, type: 3}
    - {fileID: -6623594924128421203, guid: a5aee097339a45045bbfac0ba7d8e3ba, type: 3}
    - {fileID: 7791262819983882499, guid: a5aee097339a45045bbfac0ba7d8e3ba, type: 3}
    - {fileID: 241785388218342967, guid: a5aee097339a45045bbfac0ba7d8e3ba, type: 3}
    - {fileID: 5417883462495597884, guid: a5aee097339a45045bbfac0ba7d8e3ba, type: 3}
    - {fileID: 472873386604557783, guid: a5aee097339a45045bbfac0ba7d8e3ba, type: 3}
    - {fileID: 5349512826217981496, guid: a5aee097339a45045bbfac0ba7d8e3ba, type: 3}
  m_AnimationClipSettings:
    serializedVersion: 2
    m_AdditiveReferencePoseClip: {fileID: 0}
    m_AdditiveReferencePoseTime: 0
    m_StartTime: 0
    m_StopTime: 0.9833333
    m_OrientationOffsetY: 0
    m_Level: 0
    m_CycleOffset: 0
    m_HasAdditiveReferencePose: 0
    m_LoopTime: 1
    m_LoopBlend: 0
    m_LoopBlendOrientation: 0
    m_LoopBlendPositionY: 0
    m_LoopBlendPositionXZ: 0
    m_KeepOriginalOrientation: 0
    m_KeepOriginalPositionY: 1
    m_KeepOriginalPositionXZ: 0
    m_HeightFromFeet: 0
    m_Mirror: 0
  m_EditorCurves: []
  m_EulerEditorCurves: []
  m_HasGenericRootTransform: 0
  m_HasMotionFloatCurves: 0
  m_Events: []
